Subway Data
…
filtered2 <- filtered2 %>% 
  group_by(route_mta_id, stop_name) %>%
  summarize(median = approx(cdf, seconds_until_next_departure, xout = 0.5)$y, 
            lower = approx(cdf, seconds_until_next_departure, xout = 0.25)$y, 
            upper = approx(cdf, seconds_until_next_departure, xout = 0.75)$y,
        perc10  = approx(cdf, seconds_until_next_departure, xout = 0.1)$y,
        perc90 = approx(cdf, seconds_until_next_departure, xout = 0.9)$y) 

lat <- data.frame(lat = todd_and_stop_data$lat, stop_name = todd_and_stop_data$stop_name, stringsAsFactors = FALSE) %>% arrange(desc(lat))

left_join(filtered2, lat, by = c("stop_name" = "stop_name")) # now trying to organize station names from first to last station

## # A tibble: 103,092,756 x 8
## # Groups:   route_mta_id [?]
##    route_mta_id stop_name median lower upper perc10 perc90   lat
##    <fct>        <chr>      <dbl> <dbl> <dbl>  <dbl>  <dbl> <dbl>
##  1 1            103 St      192.  124.  283.   87.6   377.  40.8
##  2 1            103 St      192.  124.  283.   87.6   377.  40.8
##  3 1            103 St      192.  124.  283.   87.6   377.  40.8
##  4 1            103 St      192.  124.  283.   87.6   377.  40.8
##  5 1            103 St      192.  124.  283.   87.6   377.  40.8
##  6 1            103 St      192.  124.  283.   87.6   377.  40.8
##  7 1            103 St      192.  124.  283.   87.6   377.  40.8
##  8 1            103 St      192.  124.  283.   87.6   377.  40.8
##  9 1            103 St      192.  124.  283.   87.6   377.  40.8
## 10 1            103 St      192.  124.  283.   87.6   377.  40.8
## # ... with 103,092,746 more rows
…
