20180727_mta_triptime_distribution
…
}

debug_train_schedules_plot(train_data, subway_data)

## Warning: 'rbind_list' is deprecated.
## Use 'bind_rows()' instead.
## See help("Deprecated")

## # A tibble: 7,946 x 10
##    realtime_trip_id stop_mta_id route_mta_id direction departure_time     
##               <int> <chr>       <fct>            <int> <dttm>             
##  1            13115 123S        1                    3 2018-01-22 07:07:37
##  2            13202 123S        1                    3 2018-01-22 07:15:05
##  3            13150 123S        1                    3 2018-01-22 07:18:42
##  4            13269 123S        1                    3 2018-01-22 07:21:49
##  5            13235 123S        1                    3 2018-01-22 07:29:36
##  6            13352 123S        1                    3 2018-01-22 07:34:33
##  7            13340 123S        1                    3 2018-01-22 07:37:13
##  8            13445 123S        1                    3 2018-01-22 07:45:04
##  9            13360 123S        1                    3 2018-01-22 07:51:06
## 10            13416 123S        1                    3 2018-01-22 07:53:14
## # ... with 7,936 more rows, and 5 more variables:
## #   seconds_until_next_departure <int>, day_of_week <chr>, hour <int>,
## #   start_time <dttm>, count <int>
…
